…
En cualquier trabajo de investigación que involucre una muestra o conjunto de datos es importante mostrar un cuadro resumen que contenga estadísticas descriptivas del conjunto, de esta manera se puede comunicar de forma clara la dimensión de los datos del estudio.

Con solo dos herramientas la construcción de tablas resúmnes resulta muy facil y sencilla. Las funciones de dplyr permiten calcular diferentes estadísticas según diferentes grupos. Una vez terminada la tabla el paquete kableExtra transforma facimente la información de la tabla a formato HTML o Latex (para visualizar en PDF).

Los datos a usar

Para este ejemplo utilizo los datos vuelos que están dentro del paquete datos. vuelos es la traducción al español del conjunto nycflights13::flights. Este conjunto contiene los datos de los vuelos que despegaron de Nueva York durante el 2013.

library(datos)
library(tidyverse)
vuelos

## # A tibble: 336,776 x 19
##     anio   mes   dia horario_salida salida_programa~ atraso_salida
##    <int> <int> <int>          <int>            <int>         <dbl>
##  1  2013     1     1            517              515             2
##  2  2013     1     1            533              529             4
##  3  2013     1     1            542              540             2
##  4  2013     1     1            544              545            -1
##  5  2013     1     1            554              600            -6
##  6  2013     1     1            554              558            -4
##  7  2013     1     1            555              600            -5
##  8  2013     1     1            557              600            -3
##  9  2013     1     1            557              600            -3
## 10  2013     1     1            558              600            -2
## # ... with 336,766 more rows, and 13 more variables:
## #   horario_llegada <int>, llegada_programada <int>, atraso_llegada <dbl>,
## #   aerolinea <chr>, vuelo <int>, codigo_cola <chr>, origen <chr>,
## #   destino <chr>, tiempo_vuelo <dbl>, distancia <dbl>, hora <dbl>,
## #   minuto <dbl>, fecha_hora <dttm>
…
datos <- vuelos %>% 
  select(mes, aerolinea, atraso_llegada, atraso_salida) %>% 
  filter(atraso_salida > 0 , atraso_llegada > 0) %>% 
  filter(mes >=9, mes <=11) %>% 
  filter(aerolinea %in% mayores_aerolineas$aerolinea) %>% 
  arrange(mes)
datos

## # A tibble: 8,688 x 4
##      mes aerolinea atraso_llegada atraso_salida
##    <int> <chr>              <dbl>         <dbl>
##  1     9 B6                     3            10
##  2     9 B6                   139           152
##  3     9 EV                     8            11
##  4     9 B6                     9             2
##  5     9 B6                    13            18
##  6     9 B6                    46            57
##  7     9 EV                    61            80
##  8     9 EV                     4            25
##  9     9 UA                    16            50
## 10     9 EV                    30            38
## # ... with 8,678 more rows
…
